<?xml version="1.0" encoding="UTF-8" standalone="no"?>
<svg width="16px" height="16px" viewBox="0 0 16 16" version="1.1" xmlns="http://www.w3.org/2000/svg" xmlns:xlink="http://www.w3.org/1999/xlink">
    <!-- Generator: Sketch 47.1 (45422) - http://www.bohemiancoding.com/sketch -->
    <title>post-facebook</title>
    <desc>Created with Sketch.</desc>
    <defs></defs>
    <g id="Page-1" stroke="none" stroke-width="1" fill="none" fill-rule="evenodd">
        <g id="Card-Member-Copy" transform="translate(-34.000000, -603.000000)" fill="#C5A03E">
            <g id="post-facebook" transform="translate(34.000000, 603.000000)">
                <path d="M14.4,0 L1.6,0 C0.72,0 0,0.72 0,1.6 L0,14.4 C0,15.28 0.72,16 1.6,16 L14.4,16 C15.28,16 16,15.28 16,14.4 L16,1.6 C16,0.72 15.28,0 14.4,0 L14.4,0 Z M13.6,1.6 L13.6,4 L12,4 C11.52,4 11.2,4.32 11.2,4.8 L11.2,6.4 L13.6,6.4 L13.6,8.8 L11.2,8.8 L11.2,14.4 L8.8,14.4 L8.8,8.8 L7.2,8.8 L7.2,6.4 L8.8,6.4 L8.8,4.4 C8.8,2.88 10.08,1.6 11.6,1.6 L13.6,1.6 L13.6,1.6 Z" id="Shape"></path>
            </g>
        </g>
    </g>
</svg>